<?xml version="1.0" standalone="no"?>
<!DOCTYPE svg PUBLIC "-//W3C//DTD SVG 1.1//EN" "http://www.w3.org/Graphics/SVG/1.1/DTD/svg11.dtd">
<svg xmlns="../external.html?link=http://www.w3.org/2000/svg">
<metadata>Copyright (C) 2017 by original authors @ fontello.com</metadata>
<defs>
<font id="mastodon" horiz-adv-x="1000" >
<font-face font-family="mastodon" font-weight="400" font-stretch="normal" units-per-em="1000" ascent="850" descent="-150" />
<missing-glyph horiz-adv-x="1000" />
<glyph glyph-name="logo" unicode="&#xe800;" d="M947 251c-14-71-123-148-248-163-66-8-130-15-199-12-112 5-200 27-200 27 0-11 0-21 2-31 14-111 109-118 200-121 91-3 172 23 172 23l3-83c0 0-63-34-177-40-62-3-140 2-230 25-197 52-230 262-235 474-2 63-1 122-1 172 0 217 142 280 142 280 72 33 195 47 323 48l3 0c128-1 251-15 322-48 0 0 142-63 142-280 0 0 2-160-19-271m-148 254l0-263-104 0 0 255c0 54-23 81-68 81-50 0-75-32-75-96l0-140-104 0 0 140c0 64-25 96-75 96-45 0-68-27-68-81l0-255-104 0 0 263c0 54 14 96 41 128 29 31 66 48 112 48 53 0 93-21 120-62l26-43 26 43c27 41 67 62 120 62 46 0 83-17 112-48 27-32 41-74 41-128" horiz-adv-x="1000" />

<glyph glyph-name="logo_alt" unicode="&#xe801;" d="M945 251c-14-71-122-148-247-163-65-8-129-15-198-12-112 5-200 27-200 27 0-11 1-22 2-31 15-111 110-118 199-121 91-3 172 23 172 23l4-83c0 0-64-34-177-40-62-4-139 1-230 25-195 52-229 262-234 474-1 63 0 122 0 172 0 217 141 280 141 280 72 33 194 47 322 48l3 0c127-1 250-15 321-48 0 0 142-63 142-280 0 0 2-160-20-271m-628 183c0-39-31-70-70-70-38 0-70 31-70 70 0 39 32 71 70 71 39 0 70-32 70-71m253 0c0-39-31-70-70-70-39 0-70 31-70 70 0 39 31 71 70 71 39 0 70-32 70-71m253 0c0-39-32-70-70-70-39 0-70 31-70 70 0 39 31 71 70 71 38 0 70-32 70-71" horiz-adv-x="1000" />
</font>
</defs>
</svg>